{"frames": [

{
	"filename": "background",
	"frame": {"x":1,"y":1,"w":768,"h":1024},
	"rotated": false,
	"trimmed": false,
	"spriteSourceSize": {"x":0,"y":0,"w":768,"h":1024},
	"sourceSize": {"w":768,"h":1024}
},
{
	"filename": "game_button_back_down",
	"frame": {"x":771,"y":1,"w":212,"h":59},
	"rotated": false,
	"trimmed": false,
	"spriteSourceSize": {"x":0,"y":0,"w":212,"h":59},
	"sourceSize": {"w":212,"h":59}
},
{
	"filename": "game_button_back_norm",
	"frame": {"x":771,"y":62,"w":212,"h":59},
	"rotated": false,
	"trimmed": false,
	"spriteSourceSize": {"x":0,"y":0,"w":212,"h":59},
	"sourceSize": {"w":212,"h":59}
},
{
	"filename": "game_button_back_over",
	"frame": {"x":771,"y":123,"w":212,"h":59},
	"rotated": false,
	"trimmed": false,
	"spriteSourceSize": {"x":0,"y":0,"w":212,"h":59},
	"sourceSize": {"w":212,"h":59}
},
{
	"filename": "game_button_cancel_meld_down",
	"frame": {"x":771,"y":184,"w":212,"h":59},
	"rotated": false,
	"trimmed": false,
	"spriteSourceSize": {"x":0,"y":0,"w":212,"h":59},
	"sourceSize": {"w":212,"h":59}
},
{
	"filename": "game_button_cancel_meld_norm",
	"frame": {"x":771,"y":245,"w":212,"h":59},
	"rotated": false,
	"trimmed": false,
	"spriteSourceSize": {"x":0,"y":0,"w":212,"h":59},
	"sourceSize": {"w":212,"h":59}
},
{
	"filename": "game_button_cancel_meld_over",
	"frame": {"x":771,"y":306,"w":212,"h":59},
	"rotated": false,
	"trimmed": false,
	"spriteSourceSize": {"x":0,"y":0,"w":212,"h":59},
	"sourceSize": {"w":212,"h":59}
},
{
	"filename": "game_button_close_down",
	"frame": {"x":771,"y":367,"w":212,"h":59},
	"rotated": false,
	"trimmed": false,
	"spriteSourceSize": {"x":0,"y":0,"w":212,"h":59},
	"sourceSize": {"w":212,"h":59}
},
{
	"filename": "game_button_close_norm",
	"frame": {"x":771,"y":428,"w":212,"h":59},
	"rotated": false,
	"trimmed": false,
	"spriteSourceSize": {"x":0,"y":0,"w":212,"h":59},
	"sourceSize": {"w":212,"h":59}
},
{
	"filename": "game_button_close_over",
	"frame": {"x":771,"y":489,"w":212,"h":59},
	"rotated": false,
	"trimmed": false,
	"spriteSourceSize": {"x":0,"y":0,"w":212,"h":59},
	"sourceSize": {"w":212,"h":59}
},
{
	"filename": "game_button_deal_down",
	"frame": {"x":771,"y":550,"w":212,"h":59},
	"rotated": false,
	"trimmed": false,
	"spriteSourceSize": {"x":0,"y":0,"w":212,"h":59},
	"sourceSize": {"w":212,"h":59}
},
{
	"filename": "game_button_deal_norm",
	"frame": {"x":771,"y":611,"w":212,"h":59},
	"rotated": false,
	"trimmed": false,
	"spriteSourceSize": {"x":0,"y":0,"w":212,"h":59},
	"sourceSize": {"w":212,"h":59}
},
{
	"filename": "game_button_deal_over",
	"frame": {"x":771,"y":672,"w":212,"h":59},
	"rotated": false,
	"trimmed": false,
	"spriteSourceSize": {"x":0,"y":0,"w":212,"h":59},
	"sourceSize": {"w":212,"h":59}
},
{
	"filename": "game_button_finish_meld_disabled",
	"frame": {"x":771,"y":733,"w":212,"h":59},
	"rotated": false,
	"trimmed": false,
	"spriteSourceSize": {"x":0,"y":0,"w":212,"h":59},
	"sourceSize": {"w":212,"h":59}
},
{
	"filename": "game_button_finish_meld_down",
	"frame": {"x":771,"y":794,"w":212,"h":59},
	"rotated": false,
	"trimmed": false,
	"spriteSourceSize": {"x":0,"y":0,"w":212,"h":59},
	"sourceSize": {"w":212,"h":59}
},
{
	"filename": "game_button_finish_meld_norm",
	"frame": {"x":771,"y":855,"w":212,"h":59},
	"rotated": false,
	"trimmed": false,
	"spriteSourceSize": {"x":0,"y":0,"w":212,"h":59},
	"sourceSize": {"w":212,"h":59}
},
{
	"filename": "game_button_finish_meld_over",
	"frame": {"x":771,"y":916,"w":212,"h":59},
	"rotated": false,
	"trimmed": false,
	"spriteSourceSize": {"x":0,"y":0,"w":212,"h":59},
	"sourceSize": {"w":212,"h":59}
},
{
	"filename": "game_button_meld_lay_off_disabled",
	"frame": {"x":771,"y":977,"w":212,"h":59},
	"rotated": false,
	"trimmed": false,
	"spriteSourceSize": {"x":0,"y":0,"w":212,"h":59},
	"sourceSize": {"w":212,"h":59}
},
{
	"filename": "game_button_meld_lay_off_down",
	"frame": {"x":95,"y":1409,"w":212,"h":59},
	"rotated": false,
	"trimmed": false,
	"spriteSourceSize": {"x":0,"y":0,"w":212,"h":59},
	"sourceSize": {"w":212,"h":59}
},
{
	"filename": "game_button_meld_lay_off_norm",
	"frame": {"x":205,"y":1470,"w":212,"h":59},
	"rotated": false,
	"trimmed": false,
	"spriteSourceSize": {"x":0,"y":0,"w":212,"h":59},
	"sourceSize": {"w":212,"h":59}
},
{
	"filename": "game_button_meld_lay_off_over",
	"frame": {"x":309,"y":1409,"w":212,"h":59},
	"rotated": false,
	"trimmed": false,
	"spriteSourceSize": {"x":0,"y":0,"w":212,"h":59},
	"sourceSize": {"w":212,"h":59}
},
{
	"filename": "game_button_next_down",
	"frame": {"x":419,"y":1470,"w":212,"h":59},
	"rotated": false,
	"trimmed": false,
	"spriteSourceSize": {"x":0,"y":0,"w":212,"h":59},
	"sourceSize": {"w":212,"h":59}
},
{
	"filename": "game_button_next_norm",
	"frame": {"x":523,"y":1409,"w":212,"h":59},
	"rotated": false,
	"trimmed": false,
	"spriteSourceSize": {"x":0,"y":0,"w":212,"h":59},
	"sourceSize": {"w":212,"h":59}
},
{
	"filename": "game_button_next_over",
	"frame": {"x":633,"y":1470,"w":212,"h":59},
	"rotated": false,
	"trimmed": false,
	"spriteSourceSize": {"x":0,"y":0,"w":212,"h":59},
	"sourceSize": {"w":212,"h":59}
},
{
	"filename": "game_button_skip_down",
	"frame": {"x":737,"y":1409,"w":212,"h":59},
	"rotated": false,
	"trimmed": false,
	"spriteSourceSize": {"x":0,"y":0,"w":212,"h":59},
	"sourceSize": {"w":212,"h":59}
},
{
	"filename": "game_button_skip_norm",
	"frame": {"x":751,"y":1038,"w":212,"h":59},
	"rotated": false,
	"trimmed": false,
	"spriteSourceSize": {"x":0,"y":0,"w":212,"h":59},
	"sourceSize": {"w":212,"h":59}
},
{
	"filename": "game_button_skip_over",
	"frame": {"x":751,"y":1099,"w":212,"h":59},
	"rotated": false,
	"trimmed": false,
	"spriteSourceSize": {"x":0,"y":0,"w":212,"h":59},
	"sourceSize": {"w":212,"h":59}
},
{
	"filename": "game_button_sort_hand_disabled",
	"frame": {"x":751,"y":1160,"w":212,"h":59},
	"rotated": false,
	"trimmed": false,
	"spriteSourceSize": {"x":0,"y":0,"w":212,"h":59},
	"sourceSize": {"w":212,"h":59}
},
{
	"filename": "game_button_sort_hand_down",
	"frame": {"x":751,"y":1343,"w":202,"h":58},
	"rotated": false,
	"trimmed": true,
	"spriteSourceSize": {"x":5,"y":0,"w":202,"h":58},
	"sourceSize": {"w":212,"h":59}
},
{
	"filename": "game_button_sort_hand_norm",
	"frame": {"x":751,"y":1221,"w":212,"h":59},
	"rotated": false,
	"trimmed": false,
	"spriteSourceSize": {"x":0,"y":0,"w":212,"h":59},
	"sourceSize": {"w":212,"h":59}
},
{
	"filename": "game_button_sort_hand_over",
	"frame": {"x":751,"y":1282,"w":212,"h":59},
	"rotated": false,
	"trimmed": false,
	"spriteSourceSize": {"x":0,"y":0,"w":212,"h":59},
	"sourceSize": {"w":212,"h":59}
},
{
	"filename": "meld-icon-2-black",
	"frame": {"x":985,"y":1,"w":25,"h":27},
	"rotated": false,
	"trimmed": false,
	"spriteSourceSize": {"x":0,"y":0,"w":25,"h":27},
	"sourceSize": {"w":25,"h":27}
},
{
	"filename": "meld-icon-2-red",
	"frame": {"x":985,"y":30,"w":25,"h":27},
	"rotated": false,
	"trimmed": false,
	"spriteSourceSize": {"x":0,"y":0,"w":25,"h":27},
	"sourceSize": {"w":25,"h":27}
},
{
	"filename": "meld-icon-3-black",
	"frame": {"x":985,"y":59,"w":25,"h":27},
	"rotated": false,
	"trimmed": false,
	"spriteSourceSize": {"x":0,"y":0,"w":25,"h":27},
	"sourceSize": {"w":25,"h":27}
},
{
	"filename": "meld-icon-3-red",
	"frame": {"x":985,"y":88,"w":25,"h":27},
	"rotated": false,
	"trimmed": false,
	"spriteSourceSize": {"x":0,"y":0,"w":25,"h":27},
	"sourceSize": {"w":25,"h":27}
},
{
	"filename": "meld-icon-4-black",
	"frame": {"x":985,"y":117,"w":25,"h":27},
	"rotated": false,
	"trimmed": false,
	"spriteSourceSize": {"x":0,"y":0,"w":25,"h":27},
	"sourceSize": {"w":25,"h":27}
},
{
	"filename": "meld-icon-4-red",
	"frame": {"x":985,"y":146,"w":25,"h":27},
	"rotated": false,
	"trimmed": false,
	"spriteSourceSize": {"x":0,"y":0,"w":25,"h":27},
	"sourceSize": {"w":25,"h":27}
},
{
	"filename": "meld-icon-5-black",
	"frame": {"x":985,"y":175,"w":25,"h":27},
	"rotated": false,
	"trimmed": false,
	"spriteSourceSize": {"x":0,"y":0,"w":25,"h":27},
	"sourceSize": {"w":25,"h":27}
},
{
	"filename": "meld-icon-5-red",
	"frame": {"x":985,"y":204,"w":25,"h":27},
	"rotated": false,
	"trimmed": false,
	"spriteSourceSize": {"x":0,"y":0,"w":25,"h":27},
	"sourceSize": {"w":25,"h":27}
},
{
	"filename": "meld-icon-6-black",
	"frame": {"x":985,"y":233,"w":25,"h":27},
	"rotated": false,
	"trimmed": false,
	"spriteSourceSize": {"x":0,"y":0,"w":25,"h":27},
	"sourceSize": {"w":25,"h":27}
},
{
	"filename": "meld-icon-6-red",
	"frame": {"x":985,"y":262,"w":25,"h":27},
	"rotated": false,
	"trimmed": false,
	"spriteSourceSize": {"x":0,"y":0,"w":25,"h":27},
	"sourceSize": {"w":25,"h":27}
},
{
	"filename": "meld-icon-7-black",
	"frame": {"x":985,"y":291,"w":25,"h":27},
	"rotated": false,
	"trimmed": false,
	"spriteSourceSize": {"x":0,"y":0,"w":25,"h":27},
	"sourceSize": {"w":25,"h":27}
},
{
	"filename": "meld-icon-7-red",
	"frame": {"x":985,"y":320,"w":25,"h":27},
	"rotated": false,
	"trimmed": false,
	"spriteSourceSize": {"x":0,"y":0,"w":25,"h":27},
	"sourceSize": {"w":25,"h":27}
},
{
	"filename": "meld-icon-8-black",
	"frame": {"x":985,"y":349,"w":25,"h":27},
	"rotated": false,
	"trimmed": false,
	"spriteSourceSize": {"x":0,"y":0,"w":25,"h":27},
	"sourceSize": {"w":25,"h":27}
},
{
	"filename": "meld-icon-8-red",
	"frame": {"x":985,"y":378,"w":25,"h":27},
	"rotated": false,
	"trimmed": false,
	"spriteSourceSize": {"x":0,"y":0,"w":25,"h":27},
	"sourceSize": {"w":25,"h":27}
},
{
	"filename": "meld-icon-9-black",
	"frame": {"x":985,"y":407,"w":25,"h":27},
	"rotated": false,
	"trimmed": false,
	"spriteSourceSize": {"x":0,"y":0,"w":25,"h":27},
	"sourceSize": {"w":25,"h":27}
},
{
	"filename": "meld-icon-9-red",
	"frame": {"x":985,"y":436,"w":25,"h":27},
	"rotated": false,
	"trimmed": false,
	"spriteSourceSize": {"x":0,"y":0,"w":25,"h":27},
	"sourceSize": {"w":25,"h":27}
},
{
	"filename": "meld-icon-10-black",
	"frame": {"x":1,"y":1498,"w":35,"h":27},
	"rotated": false,
	"trimmed": false,
	"spriteSourceSize": {"x":0,"y":0,"w":35,"h":27},
	"sourceSize": {"w":35,"h":27}
},
{
	"filename": "meld-icon-10-red",
	"frame": {"x":38,"y":1498,"w":35,"h":27},
	"rotated": false,
	"trimmed": false,
	"spriteSourceSize": {"x":0,"y":0,"w":35,"h":27},
	"sourceSize": {"w":35,"h":27}
},
{
	"filename": "meld-icon-a-black",
	"frame": {"x":985,"y":465,"w":25,"h":27},
	"rotated": false,
	"trimmed": false,
	"spriteSourceSize": {"x":0,"y":0,"w":25,"h":27},
	"sourceSize": {"w":25,"h":27}
},
{
	"filename": "meld-icon-a-red",
	"frame": {"x":985,"y":494,"w":25,"h":27},
	"rotated": false,
	"trimmed": false,
	"spriteSourceSize": {"x":0,"y":0,"w":25,"h":27},
	"sourceSize": {"w":25,"h":27}
},
{
	"filename": "meld-icon-c",
	"frame": {"x":985,"y":523,"w":25,"h":27},
	"rotated": false,
	"trimmed": false,
	"spriteSourceSize": {"x":0,"y":0,"w":25,"h":27},
	"sourceSize": {"w":25,"h":27}
},
{
	"filename": "meld-icon-d",
	"frame": {"x":985,"y":552,"w":25,"h":27},
	"rotated": false,
	"trimmed": false,
	"spriteSourceSize": {"x":0,"y":0,"w":25,"h":27},
	"sourceSize": {"w":25,"h":27}
},
{
	"filename": "meld-icon-h",
	"frame": {"x":985,"y":581,"w":25,"h":27},
	"rotated": false,
	"trimmed": false,
	"spriteSourceSize": {"x":0,"y":0,"w":25,"h":27},
	"sourceSize": {"w":25,"h":27}
},
{
	"filename": "meld-icon-j-black",
	"frame": {"x":985,"y":610,"w":25,"h":27},
	"rotated": false,
	"trimmed": false,
	"spriteSourceSize": {"x":0,"y":0,"w":25,"h":27},
	"sourceSize": {"w":25,"h":27}
},
{
	"filename": "meld-icon-j-red",
	"frame": {"x":985,"y":639,"w":25,"h":27},
	"rotated": false,
	"trimmed": false,
	"spriteSourceSize": {"x":0,"y":0,"w":25,"h":27},
	"sourceSize": {"w":25,"h":27}
},
{
	"filename": "meld-icon-k-black",
	"frame": {"x":985,"y":668,"w":25,"h":27},
	"rotated": false,
	"trimmed": false,
	"spriteSourceSize": {"x":0,"y":0,"w":25,"h":27},
	"sourceSize": {"w":25,"h":27}
},
{
	"filename": "meld-icon-k-red",
	"frame": {"x":985,"y":697,"w":25,"h":27},
	"rotated": false,
	"trimmed": false,
	"spriteSourceSize": {"x":0,"y":0,"w":25,"h":27},
	"sourceSize": {"w":25,"h":27}
},
{
	"filename": "meld-icon-q-black",
	"frame": {"x":985,"y":726,"w":25,"h":27},
	"rotated": false,
	"trimmed": false,
	"spriteSourceSize": {"x":0,"y":0,"w":25,"h":27},
	"sourceSize": {"w":25,"h":27}
},
{
	"filename": "meld-icon-q-red",
	"frame": {"x":985,"y":755,"w":25,"h":27},
	"rotated": false,
	"trimmed": false,
	"spriteSourceSize": {"x":0,"y":0,"w":25,"h":27},
	"sourceSize": {"w":25,"h":27}
},
{
	"filename": "meld-icon-s",
	"frame": {"x":985,"y":784,"w":25,"h":27},
	"rotated": false,
	"trimmed": false,
	"spriteSourceSize": {"x":0,"y":0,"w":25,"h":27},
	"sourceSize": {"w":25,"h":27}
},
{
	"filename": "message-text-panel",
	"frame": {"x":1,"y":1027,"w":748,"h":380},
	"rotated": false,
	"trimmed": false,
	"spriteSourceSize": {"x":0,"y":0,"w":748,"h":380},
	"sourceSize": {"w":748,"h":380}
},
{
	"filename": "time-bar-back",
	"frame": {"x":847,"y":1470,"w":122,"h":18},
	"rotated": false,
	"trimmed": false,
	"spriteSourceSize": {"x":0,"y":0,"w":122,"h":18},
	"sourceSize": {"w":122,"h":18}
},
{
	"filename": "time-bar-borders",
	"frame": {"x":75,"y":1498,"w":128,"h":24},
	"rotated": false,
	"trimmed": false,
	"spriteSourceSize": {"x":0,"y":0,"w":128,"h":24},
	"sourceSize": {"w":128,"h":24}
},
{
	"filename": "time-bar-front",
	"frame": {"x":847,"y":1490,"w":122,"h":18},
	"rotated": false,
	"trimmed": false,
	"spriteSourceSize": {"x":0,"y":0,"w":122,"h":18},
	"sourceSize": {"w":122,"h":18}
},
{
	"filename": "tutorial-arrow",
	"frame": {"x":1,"y":1409,"w":92,"h":87},
	"rotated": false,
	"trimmed": true,
	"spriteSourceSize": {"x":2,"y":2,"w":92,"h":87},
	"sourceSize": {"w":96,"h":92}
}],
"meta": {
	"app": "https://www.codeandweb.com/texturepacker",
	"version": "1.0",
	"image": "ui.png",
	"format": "RGBA8888",
	"size": {"w":1011,"h":1530},
	"scale": "1",
	"smartupdate": "$TexturePacker:SmartUpdate:9363d9345a2851e51d2964e34db283bd:1104536e37ed134ebaec0652e75cc0f4:5b04aa198265472a3c5f56958d78e97b$"
}
}
