[
    {
        "key": "wait",
        "value": 1500
    },

    {
        "key": "messages",
        "value": {
            "eng": "Traditional Rummy is a classic card game, where the objective is to be the first player to get rid of all the cards in your hands by using melds.",

            "hindi": [
                "some lang 1",
                "some lang 2",
                "some lang 3"
            ]
        }
    },

    {
        "key": "messages",
        "value": {
            "eng": [
                "Melds can either be sets of three or four cards of the same rank, such as an 8-hearts, 8-spades, and 8-diamonds.",
                "Melds can also be in the form of \"runs\", which are three or more cards in sequential order, and of the same suit.",
                "For example, you could have 9-diamonds, 10-diamonds, and J-diamonds. Aces are low (rank of 1), and do not wrap around to Kings."
            ],

            "hindi": [
                "some lang 4",
                "some lang 5",
                "some lang 6"
            ]
        }
    },

    {
        "key": "messages",
        "value": {
            "eng":  "Let's get started with a sample game.",
            "hindi": "some lang 7"
        }
    },

    {
        "key": "messages",
        "value": {
            "eng": "The game begins by dealing out 7 cards to each player.",
            "hindi": [
                "some lang 8",
                "some lang 9"
            ]
        }
    },

    {
        "key": "set-deck-cards",
        "value": [
            "7d", "kh", "5h", "ac", "4c", "6h", "ks", "3c", "5c", "7c", "as", "js", "kc", "7s",
            "9s", "2c", "6c", "ah"
        ]
    },

    {
        "key": "deal-opening-cards"
    },

    {
        "key": "wait",
        "value": 1500
    },

    {
        "key": "messages",
        "value": {
            "eng": [
                "After the opening cards are dealt, the top card of the deck is discarded. This starts what's called the \"discard pile\".",
                "Cards in the discard pile are always face up."
            ],

            "hindi": [
                "some lang 10",
                "some lang 11"
            ]
        }
    },

    {
        "key": "wait",
        "value": 1000
    },

    {
        "key": "discard-card-from-deck"
    },

    {
        "key": "wait",
        "value": 2000
    },

    {
        "key": "messages",
        "value": {
            "eng": [
                "More on how to use discarded cards later.",
                "To begin play, you'll go first.",
                "You always start your turn by either drawing a card from the deck, or adding the top card from the discard pile to your hand.",
                "If you choose to use the discard pile, you can only get the top card. You may not get cards from underneath the top card.",
                "Remember, the goal is to create melds of +three cards of the same value, or +three cards in sequential order with the same suit.",
                "Our hand currently has no cards to form any melds.\n\nLet's instead have a look at the discarded card."
            ],

            "hindi": [
                "some lang 12",
                "some lang 13"
            ]
        }
    },

    {
        "key": "hilite-card",
        "value": "9s"
    },

    {
        "key": "wait",
        "value": 2000
    },

    {
        "key": "unhilite-all-cards"
    },

    {
        "key": "wait",
        "value": 1000
    },

    {
        "key": "messages",
        "value": {
            "eng": [
                "It's a 9-spades. Unfortuntely, it doesn't help us create a meld.",
                "Instead, let's draw a card from the deck.\n\nPress on the deck to draw a card."
            ],
            "hindi": [
                "some lang 14",
                "some lang 15"
            ]
        }
    },

    {
        "key": "show-arrow",
        "value": {
            "x": 192,
            "y": 500,
            "angle": 0
        }
    },

    {
        "key": "press",
        "value": {
            "target": "deck"
        }
    },

    {
        "key": "hide-arrow"
    },

    {
        "key": "draw-card",
        "value": 0
    },

    {
        "key": "wait",
        "value": 1500
    },

    {
        "key": "hilite-cards",
        "value": [ "2c", "4c" ]
    },

    {
        "key": "messages",
        "value": {
            "eng": "We drew a 2-clubs. We already have a 4-clubs, and we could form a run meld later if we get a 3-clubs.",
            "hindi": "some lang 16"
        }
    },

    {
        "key": "unhilite-all-cards"
    },

    {
        "key": "wait",
        "value": 1500
    },

    {
        "key": "messages",
        "value": {
            "eng": [
                "At the end of every turn, you must discard a card.\n\nWe'll need to get rid of something we don't need.",
                "Let's examine all the cards in our hand to discard the least useful one."
            ],
            "hindi": "some lang"
        }
    },

    {
        "key": "wait",
        "value": 2000
    },

    {
        "key": "hilite-card",
        "value": ["ks", "kc"]
    },

    {
        "key": "message",
        "value": {
            "eng": "We have a pair of kings in our hand already. We'll keep those in case we get a third one.",
            "hindi": [
                "some lang 17",
                "some lang 18"
            ]
        }
    },

    {
        "key": "unhilite-all-cards"
    },

    {
        "key": "wait",
        "value": 1500
    },

    {
        "key": "hilite-cards",
        "value": ["5h", "5c"]
    },

    {
        "key": "messages",
        "value": {
            "eng": "We also have a pair of fives in our hand. We'll keep those in case we get another five.",
            "hindi": [
                "some lang 19",
                "some lang 20"
            ]
        }
    },

    {
        "key": "unhilite-all-cards"
    },

    {
        "key": "wait",
        "value": 1500
    },

    {
        "key": "hilite-cards",
        "value": ["4c", "5c"]
    },

    {
        "key": "message",
        "value": {
            "eng": "Also, with the 4-clubs and 5-clubs, we could create a run meld with either a 3-clubs, OR a 6-clubs.\n\nWe'll keep both.",
            "hindi": "some lang1"
        }
    },
    
    {
        "key": "unhilite-all-cards"
    },

    {
        "key": "wait",
        "value": 1500
    },

    {
        "key": "hilite-cards",
        "value": ["as", "7d"]
    },

    {
        "key": "messages",
        "value": {
            "eng": [
                "All that's left are the A-spades and 7-diamonds.",
                "Press on the 7-diamonds to discard it."
            ],
            "hindi": [
                "some lang 21",
                "some lang 22"
            ]
        }
    },

    {
        "key": "unhilite-all-cards"
    },

    {
        "key": "hilite-card",
        "value": {
            "cardIds": "7d",
            "color": "#00ff00"
        }
    },

    {
        "key": "press",
        "value": {
            "target": "card",
            "id": "7d"
        }
    },

    {
        "key": "unhilite-all-cards"
    },

    {
        "key": "discard-card-from-player",
        "value": {
            "playerIndex": 0,
            "cardId": "7d"
        }
    },

    {
        "key": "wait",
        "value": 1500
    },

    {
        "key": "message",
        "value": {
            "eng": "When you discard a card, that automatically ends your turn.\n\nIt's now your opponent's turn.",
            "hindi": [
                "some lang 23",
                "some lang 24"
            ]
        }
    },

    {
        "key": "messages",
        "value": {
            "eng": [
                "They'll do the same process as you: Either adding the top discarded card to their hand, or drawing a card from the deck.",
                "Then, they'll try to form melds with their cards.",
                "Finally, they'll discard a card, and if they have not emptied all the cards in their hand, it'll be your turn again."
            ],
            "hindi": [
                "some lang 25",
                "some lang 26"
            ]
        }
    },

    {
        "key": "wait",
        "value": 1500
    },

    {
        "key": "pick-discarded-card",
        "value": {
            "playerIndex": 1,
            "cardId": "7d"
        }
    },

    {
        "key": "wait",
        "value": 1500
    },

    {
        "key": "message",
        "value": {
            "eng": "Hmm... they picked the card we just discarded. They must have a plan for that 7-diamonds.\n\nLet's see what they'll do next...",
            "hindi": [
                "some lang 27",
                "some lang 28"
            ]
        }
    },

    {
        "key": "wait",
        "value": 3000
    },

    {
        "key": "present-meld-prep",
        "value": {
            "playerIndex": 1,
            "cardIds": ["7c", "7s", "7d"]
        }
    },

    {
        "key": "message",
        "value": {
            "eng": [
                "Oh! They formed their first meld! Three sevens.\n\n",
                "So they get to remove those three cards from their hand."
            ],
            "hindi": [
                "some lang 29",
                "some lang 30"
            ]
        }
    },

    {
        "key": "wait",
        "value": 1500
    },

    {
        "key": "create-meld",
        "value": {
            "playerIndex": 1,
            "meldType": 0
        }
    },

    {
        "key": "wait",
        "value": 2500
    },

    {
        "key": "messages",
        "value": {
            "eng": [
                "Each time a new meld is created, those cards turn into small icons that represent the meld.",
                "The meld is available for future use by any player.",
                "This is because, in addition to creating new melds, you can \"lay off\" existing melds by adding more cards to them."
            ],
            "hindi": [
                "some lang 31",
                "some lang 32"
            ]
        }
    },

    {
        "key": "wait",
        "value": 1500
    },

    {
        "key": "messages",
        "value": {
            "eng": [
                "This meld contains three sevens. That means, either player could lay off this meld if they had the fourth and final seven."
            ],
            "hindi": [
                "some lang 33",
                "some lang 34"
            ]
        }
    },

    {
        "key": "wait",
        "value": 1500
    },

    {
        "key": "messages",
        "value": {
            "eng": [
                "It's still the opponent's turn, and unless they have more melds to create (or lay off), they must discard a card and end their turn."
            ],
            "hindi": [
                "some lang 34",
                "some lang 35"
            ]
        }
    },

    {
        "key": "wait",
        "value": 3000
    },

    {
        "key": "discard-card-from-player",
        "value": {
            "playerIndex": 1,
            "cardId": "kh"
        }
    },

    {
        "key": "wait",
        "value": 1500
    },

    {
        "key": "messages",
        "value": {
            "eng": [
                "Ok, they discarded their k-hearts. Now it's our turn again."
            ],
            "hindi": [
                "some lang 36",
                "some lang 37"
            ]
        }
    },

    {
        "key": "wait",
        "value": 1000
    },

    {
        "key": "hilite-card",
        "value": ["kh", "ks", "kc"]
    },

    {
        "key": "wait",
        "value": 2500
    },

    {
        "key": "unhilite-all-cards"
    },

    {
        "key": "messages",
        "value": {
            "eng": [
                "Well, well! Would'cha look at that! We can pick that k-hearts they just discarded, and create a meld of our own... let's do it!",
                "First, pick up that k-hearts from the discard pile."
            ],
            "hindi": [
                "some lang 38",
                "some lang 39"
            ]
        }
    },

    {
        "key": "hilite-card",
        "value": {
            "cardIds": "kh",
            "color": "#00ff00"
        }
    },

    {
        "key": "press",
        "value": {
            "target": "card",
            "id": "kh"
        }
    },

    {
        "key": "pick-discarded-card",
        "value": {
            "playerIndex": 0,
            "cardId": "kh"
        }
    },

    {
        "key": "unhilite-all-cards"
    },

    {
        "key": "button-visible",
        "value": {
            "id": "meldLayOff",
            "visible": true
        }
    },

    {
        "key": "wait",
        "value": 1500
    },

    {
        "key": "messages",
        "value": {
            "eng": [
                "Next press on the Meld/Lay Off button."
            ],
            "hindi": [
                "some lang 40",
                "some lang 41"
            ]
        }
    },

    {
        "key": "hilite-button",
        "value": "meldLayOff"
    },

    {
        "key": "press",
        "value": {
            "target": "button",
            "id": "meldLayOff"
        }
    },

    {
        "key": "unhilite-button"
    },

    {
        "key": "button-visible",
        "value": {
            "id": "meldLayOff",
            "visible": false
        }
    },

    {
        "key": "message",
        "value": {
            "eng": "Next, we'll select the three kings to create our meld.\n\nLet's start by selecting them one by one.",
            "hindi": [
                "some lang 42",
                "some lang 43"
            ]
        }
    },

    {
        "key": "hilite-card",
        "value": {
            "cardIds": "ks",
            "color": "#00ff00"
        }
    },

    {
        "key": "press",
        "value": {
            "target": "card",
            "id": "ks"
        }
    },

    {
        "key": "unhilite-all-cards"
    },

    {
        "key": "present-meld-prep",
        "value": {
            "playerIndex": 0,
            "cardIds": ["ks"]
        }
    },

    {
        "key": "hilite-card",
        "value": {
            "cardIds": "kc",
            "color": "#00ff00"
        }
    },

    {
        "key": "press",
        "value": {
            "target": "card",
            "id": "kc"
        }
    },

    {
        "key": "unhilite-all-cards"
    },

    {
        "key": "present-meld-prep",
        "value": {
            "playerIndex": 0,
            "cardIds": ["kc"]
        }
    },

    {
        "key": "hilite-card",
        "value": {
            "cardIds": "kh",
            "color": "#00ff00"
        }
    },

    {
        "key": "press",
        "value": {
            "target": "card",
            "id": "kh"
        }
    },

    {
        "key": "unhilite-all-cards"
    },

    {
        "key": "present-meld-prep",
        "value": {
            "playerIndex": 0,
            "cardIds": ["kh"]
        }
    },

    {
        "key": "button-visible",
        "value": {
            "id": "finishMeld",
            "visible": true
        }
    },

    {
        "key": "wait",
        "value": 1500
    },

    {
        "key": "message",
        "value": {
            "eng": "Good! Now, press the Finish Meld button to finalize the meld-creation process.",
            "hindi": [
                "some lang 44",
                "some lang 45"
            ]
        }
    },

    {
        "key": "hilite-button",
        "value": "finishMeld"
    },
  
    {
        "key": "press",
        "value": {
            "target": "button",
            "id": "finishMeld"
        }
    },

    {
        "key": "unhilite-button"
    },

    {
        "key": "button-visible",
        "value": {
            "id": "finishMeld",
            "visible": false
        }
    },

    {
        "key": "create-meld",
        "value": {
            "playerIndex": 0,
            "meldType": 0
        }
    },

    {
        "key": "wait",
        "value": 3000
    },

    {
        "key": "message",
        "value": {
            "eng": [
                "Excellent. You've created your first meld. Looking at our hand, we've no other melds to create.",
                "Let's end our turn by discarding one card."
            ],
            "hindi": [
                "some lang 46",
                "some lang 47"
            ]
        }
    },

    {
        "key": "wait",
        "value": 1500
    },

    {
        "key": "message",
        "value": {
            "eng": [
                "Hmm... we're at a dilemma here...",
                "We've a pair of fives, a 2-clubs, 4-clubs, and 5-clubs.",
                "There are several ways we could create melds here, as explained earlier, and we'd like to keep all these cards if possible.",
                "However, that a-spades doesn't fit in with anything else. We can discard it."
            ],
            "hindi": [
                "some lang 48",
                "some lang 49"
            ]
        }
    },

    {
        "key": "hilite-card",
        "value": {
            "cardIds": [ "as" ],
            "color": "#00ff00"
        }
    },

    {
        "key": "press",
        "value": {
            "target": "card",
            "id": "as"
        }
    },

    {
        "key": "unhilite-all-cards"
    },

    {
        "key": "discard-card-from-player",
        "value": {
            "playerIndex": 0,
            "cardId": "as"
        }
    },

    {
        "key": "wait",
        "value": 1500
    },

    {
        "key": "message",
        "value": {
            "eng": "Once again, our turn is complete. Back to our opponent.",
            "hindi": "some lang 50"
        }
    },

    {
        "key": "wait",
        "value": 2500
    },

    {
        "key": "pick-discarded-card",
        "value": {
            "playerIndex": 1,
            "cardId": "as"
        }
    },

    {
        "key": "wait",
        "value": 1500
    },

    {
        "key": "message",
        "value": {
            "eng": "They picked up the a-spaces we just discarded. Are they going for another meld!?...",
            "hindi": [
                "some lang 51",
                "some lang 52"
            ]
        }
    },

    {
        "key": "wait",
        "value": 2500
    },

    {
        "key": "discard-card-from-player",
        "value": {
            "playerIndex": 1,
            "cardId": "js"
        }
    },

    {
        "key": "message",
        "value": {
            "eng": "Aha, they are not.\nHowever, keep in mind that they picked up an ace. They may be planning on using it to build another meld. Anyway, our turn again.",
            "hindi": [
                "some lang 53",
                "some lang 54"
            ]
        }
    },

    {
        "key": "wait",
        "value": 1500
    },

    {
        "key": "message",
        "value": {
            "eng": "That j-spades doesn't help us. We'll draw a card.",
            "hindi": [
                "some lang 55",
                "some lang 56"
            ]
        }
    },

    {
        "key": "show-arrow",
        "value": {
            "x": 192,
            "y": 500,
            "angle": 0
        }
    },

    {
        "key": "press",
        "value": {
            "target": "deck"
        }
    },

    {
        "key": "hide-arrow"
    },

    {
        "key": "draw-card",
        "value": 0
    },

    {
        "key": "button-visible",
        "value": {
            "id": "meldLayOff",
            "visible": true
        }
    },

    {
        "key": "wait",
        "value": 1500
    },

    {
        "key": "message",
        "value": {
            "eng": "Nice! We drew a 6-clubs! This will allow us to create a run meld with the 4-clubs and 5-clubs. Let's do that now.",
            "hindi": [
                "some lang 57",
                "some lang 58"
            ]
        }
    },

    {
        "key": "hilite-button",
        "value": "meldLayOff"
    },

    {
        "key": "press",
        "value": {
            "target": "button",
            "id": "meldLayOff"
        }
    },

    {
        "key": "unhilite-button"
    },

    {
        "key": "button-visible",
        "value": {
            "id": "meldLayOff",
            "visible": false
        }
    },

    {
        "key": "hilite-card",
        "value": {
            "cardIds": [ "4c" ],
            "color": "#00ff00"
        }
    },

    {
        "key": "press",
        "value": {
            "target": "card",
            "id": "4c"
        }
    },

    {
        "key": "unhilite-all-cards"
    },

    {
        "key": "present-meld-prep",
        "value": {
            "playerIndex": 0,
            "cardIds": ["4c"]
        }
    },

    {
        "key": "button-visible",
        "value": {
            "id": "finishMeld",
            "visible": true
        }
    },

    {
        "key": "hilite-card",
        "value": {
            "cardIds": [ "5c" ],
            "color": "#00ff00"
        }
    },

    {
        "key": "press",
        "value": {
            "target": "card",
            "id": "5c"
        }
    },

    {
        "key": "unhilite-all-cards"
    },

    {
        "key": "present-meld-prep",
        "value": {
            "playerIndex": 0,
            "cardIds": ["5c"]
        }
    },

    {
        "key": "hilite-card",
        "value": {
            "cardIds": [ "6c" ],
            "color": "#00ff00"
        }
    },

    {
        "key": "press",
        "value": {
            "target": "card",
            "id": "6c"
        }
    },

    {
        "key": "unhilite-all-cards"
    },

    {
        "key": "present-meld-prep",
        "value": {
            "playerIndex": 0,
            "cardIds": ["6c"]
        }
    },

    {
        "key": "hilite-button",
        "value": "finishMeld"
    },
  
    {
        "key": "press",
        "value": {
            "target": "button",
            "id": "finishMeld"
        }
    },

    {
        "key": "unhilite-button"
    },

    {
        "key": "button-visible",
        "value": {
            "id": "finishMeld",
            "visible": false
        }
    },

    {
        "key": "create-meld",
        "value": {
            "playerIndex": 0,
            "meldType": 1
        }
    },

    {
        "key": "wait",
        "value": 1500
    },
    
    {
        "key": "message",
        "value": {
            "eng": [
                "Good!",
                "Time to discard another card and end our turn.\n\nThe 5-hearts isn't as useful to us now..."
            ],
            "hindi": [
                "!!",
                "!?"
            ]
        }
    },
    
    {
        "key": "hilite-card",
        "value": {
            "cardIds": "5h",
            "color": "#00ff00"
        }
    },

    {
        "key": "press",
        "value": {
            "target": "card",
            "id": "5h"
        }
    },

    {
        "key": "unhilite-all-cards"
    },

    {
        "key": "discard-card-from-player",
        "value": {
            "playerIndex": 0,
            "cardId": "5h"
        }
    },

    {
        "key": "message",
        "value": {
            "eng": "We've only one card left in our hand!",
            "hindi": [
                "some lang 59",
                "some lang 60"
            ]
        }
    },

    {
        "key": "wait",
        "value": 3000
    },

    {
        "key": "present-meld-prep",
        "value": {
            "playerIndex": 1,
            "cardIds": ["3c"]
        }
    },

    {
        "key": "message",
        "value": {
            "eng": [
                "They're laying off the run meld we just created with their 3-clubs.",
                "In addition, they'll discard another card, unless they have more melds to create or lay off."
            ],
            "hindi": [
                "some lang 61",
                "some lang 62"
            ]
        }
    },

    {
        "key": "wait",
        "value": 3000
    },

    {
        "key": "lay-off-meld",
        "value": {
            "playerIndex": 1,
            "meldIndex": 2,
            "cardId": "3c"
        }
    },

    {
        "key": "discard-card-from-player",
        "value": {
            "playerIndex": 1,
            "cardId": "6h"
        }
    },

    {
        "key": "wait",
        "value": 1500
    },

    {
        "key": "message",
        "value": {
            "eng": [
                "!! This sets us up PERFECTLY to lay off our own meld!",
                "Hopefully by now, you can see which meld to lay off.",
                "But first, we must still either draw a card or pick a from the discard pile.",
                "What the hell, let's draw a card!"
            ],
            "hindi": [
                "some lang 63",
                "some lang 64"
            ]
        }
    },

    {
        "key": "show-arrow",
        "value": {
            "x": 192,
            "y": 500,
            "angle": 0
        }
    },

    {
        "key": "press",
        "value": {
            "target": "deck"
        }
    },

    {
        "key": "hide-arrow"
    },

    {
        "key": "draw-card",
        "value": 0
    },

    {
        "key": "button-visible",
        "value": {
            "id": "meldLayOff",
            "visible": true
        }
    },

    {
        "key": "hilite-button",
        "value": "meldLayOff"
    },

    {
        "key": "press",
        "value": {
            "target": "button",
            "id": "meldLayOff"
        }
    },

    {
        "key": "unhilite-button"
    },

    {
        "key": "button-visible",
        "value": {
            "id": "meldLayOff",
            "visible": false
        }
    },

    {
        "key": "hilite-card",
        "value": {
            "cardIds": "2c",
            "color": "#00ff00"
        }
    },

    {
        "key": "press",
        "value": {
            "target": "card",
            "id": "2c"
        }
    },

    {
        "key": "unhilite-all-cards"
    },

    {
        "key": "present-meld-prep",
        "value": {
            "playerIndex": 0,
            "cardIds": ["2c"]
        }
    },

    {
        "key": "hilite-meld-image",
        "value": {
            "index": 2
        }
    },

    {
        "key": "press",
        "value": {
            "target": "meld-image",
            "meldIndex": 2
        }
    },

    {
        "key": "unhilite-meld-image"
    },

    {
        "key": "lay-off-meld",
        "value": {
            "playerIndex": 0,
            "meldIndex": 2,
            "cardId": "2c"
        }
    },

    {
        "key": "hilite-card",
        "value": {
            "cardIds": "ah",
            "color": "#00ff00"
        }
    },

    {
        "key": "press",
        "value": {
            "target": "card",
            "id": "ah"
        }
    },

    {
        "key": "unhilite-all-cards"
    },

    {
        "key": "discard-card-from-player",
        "value": {
            "playerIndex": 0,
            "cardId": "ah"
        }
    },

    {
        "key": "message",
        "value": {
            "eng": [
                "Congratulations! You've won the game by being the first to empty your hand!"
            ],
            "hindi": [
                "some lang 65",
                "some lang 66"
            ]
        }
    },

    {
        "key": "end-of-game-proc",
        "value": {
            "losingPlayerIndex": 1
        }
    },

    {
        "key": "wait",
        "value": 2500
    },

    {
        "key": "play-sound",
        "value": "playerWins"
    },

    {
        "key": "message",
        "value": {
            "eng": [
                "That's it for this tutorial! You are now ready to the the game.\n\nHave fun and good luck!"
            ],
            "hindi": [
                "some lang 67",
                "some lang 68"
            ]
        }
    }
]